…
``` r
ymd(20170131, tz = "UTC")
```

    ## [1] "2017-01-31 UTC"

### From Individual Components

``` r
flights %>%
  select(year, month, day, hour, minute)
```

    ## # A tibble: 336,776 x 5
    ##     year month   day  hour minute
    ##    <int> <int> <int> <dbl>  <dbl>
    ##  1  2013     1     1     5     15
    ##  2  2013     1     1     5     29
    ##  3  2013     1     1     5     40
    ##  4  2013     1     1     5     45
    ##  5  2013     1     1     6      0
    ##  6  2013     1     1     5     58
    ##  7  2013     1     1     6      0
    ##  8  2013     1     1     6      0
    ##  9  2013     1     1     6      0
    ## 10  2013     1     1     6      0
    ## # … with 336,766 more rows

We can combine all of these elements into a date/time.

``` r
flights %>%
  select(year, month, day, hour, minute) %>%
  mutate(
    departure = make_datetime(year, month, day, hour, minute)
  )
```

    ## # A tibble: 336,776 x 6
    ##     year month   day  hour minute departure          
    ##    <int> <int> <int> <dbl>  <dbl> <dttm>             
    ##  1  2013     1     1     5     15 2013-01-01 05:15:00
    ##  2  2013     1     1     5     29 2013-01-01 05:29:00
    ##  3  2013     1     1     5     40 2013-01-01 05:40:00
    ##  4  2013     1     1     5     45 2013-01-01 05:45:00
    ##  5  2013     1     1     6      0 2013-01-01 06:00:00
    ##  6  2013     1     1     5     58 2013-01-01 05:58:00
    ##  7  2013     1     1     6      0 2013-01-01 06:00:00
    ##  8  2013     1     1     6      0 2013-01-01 06:00:00
    ##  9  2013     1     1     6      0 2013-01-01 06:00:00
    ## 10  2013     1     1     6      0 2013-01-01 06:00:00
    ## # … with 336,766 more rows
…
flights_dt <- flights %>% 
  filter(!is.na(dep_time), !is.na(arr_time)) %>% 
  mutate(
    dep_time = make_datetime_100(year, month, day, dep_time),
    arr_time = make_datetime_100(year, month, day, arr_time),
    sched_dep_time = make_datetime_100(year, month, day, sched_dep_time),
    sched_arr_time = make_datetime_100(year, month, day, sched_arr_time)
  ) %>% 
  select(origin, dest, ends_with("delay"), ends_with("time"))

flights_dt
```

    ## # A tibble: 328,063 x 9
    ##    origin dest  dep_delay arr_delay dep_time            sched_dep_time     
    ##    <chr>  <chr>     <dbl>     <dbl> <dttm>              <dttm>             
    ##  1 EWR    IAH           2        11 2013-01-01 05:17:00 2013-01-01 05:15:00
    ##  2 LGA    IAH           4        20 2013-01-01 05:33:00 2013-01-01 05:29:00
    ##  3 JFK    MIA           2        33 2013-01-01 05:42:00 2013-01-01 05:40:00
    ##  4 JFK    BQN          -1       -18 2013-01-01 05:44:00 2013-01-01 05:45:00
    ##  5 LGA    ATL          -6       -25 2013-01-01 05:54:00 2013-01-01 06:00:00
    ##  6 EWR    ORD          -4        12 2013-01-01 05:54:00 2013-01-01 05:58:00
    ##  7 EWR    FLL          -5        19 2013-01-01 05:55:00 2013-01-01 06:00:00
    ##  8 LGA    IAD          -3       -14 2013-01-01 05:57:00 2013-01-01 06:00:00
    ##  9 JFK    MCO          -3        -8 2013-01-01 05:57:00 2013-01-01 06:00:00
    ## 10 LGA    ORD          -2         8 2013-01-01 05:58:00 2013-01-01 06:00:00
    ## # … with 328,053 more rows, and 3 more variables: arr_time <dttm>,
    ## #   sched_arr_time <dttm>, air_time <dbl>
…
    ## [1] "2016-03-13 14:00:00 EDT"

``` r
one_pm + days(1)
```

    ## [1] "2016-03-13 13:00:00 EDT"

``` r
flights_dt %>% 
  filter(arr_time < dep_time)
```

    ## # A tibble: 10,633 x 9
    ##    origin dest  dep_delay arr_delay dep_time            sched_dep_time     
    ##    <chr>  <chr>     <dbl>     <dbl> <dttm>              <dttm>             
    ##  1 EWR    BQN           9        -4 2013-01-01 19:29:00 2013-01-01 19:20:00
    ##  2 JFK    DFW          59        NA 2013-01-01 19:39:00 2013-01-01 18:40:00
    ##  3 EWR    TPA          -2         9 2013-01-01 20:58:00 2013-01-01 21:00:00
    ##  4 EWR    SJU          -6       -12 2013-01-01 21:02:00 2013-01-01 21:08:00
    ##  5 EWR    SFO          11       -14 2013-01-01 21:08:00 2013-01-01 20:57:00
    ##  6 LGA    FLL         -10        -2 2013-01-01 21:20:00 2013-01-01 21:30:00
    ##  7 EWR    MCO          41        43 2013-01-01 21:21:00 2013-01-01 20:40:00
    ##  8 JFK    LAX          -7       -24 2013-01-01 21:28:00 2013-01-01 21:35:00
    ##  9 EWR    FLL          49        28 2013-01-01 21:34:00 2013-01-01 20:45:00
    ## 10 EWR    FLL          -9       -14 2013-01-01 21:36:00 2013-01-01 21:45:00
    ## # … with 10,623 more rows, and 3 more variables: arr_time <dttm>,
    ## #   sched_arr_time <dttm>, air_time <dbl>
…
