…
    ##  [1] "the smooth" "the sheet"  "the depth"  "a chicken"  "the parked"
    ##  [6] "the sun"    "the huge"   "the ball"   "the woman"  "a helps"

We could also do this with `tibble`:

``` r
tibble(sentence = sentences) %>%
  tidyr::extract(
    sentence, c("article", "noun"), "(a|the) ([^ ]+)",
    remove = FALSE
  )
```

    ## # A tibble: 720 x 3
    ##    sentence                                    article noun   
    ##    <chr>                                       <chr>   <chr>  
    ##  1 The birch canoe slid on the smooth planks.  the     smooth 
    ##  2 Glue the sheet to the dark blue background. the     sheet  
    ##  3 It's easy to tell the depth of a well.      the     depth  
    ##  4 These days a chicken leg is a rare dish.    a       chicken
    ##  5 Rice is often served in round bowls.        <NA>    <NA>   
    ##  6 The juice of lemons makes fine punch.       <NA>    <NA>   
    ##  7 The box was thrown beside the parked truck. the     parked 
    ##  8 The hogs were fed chopped corn and garbage. <NA>    <NA>   
    ##  9 Four hours of steady work faced us.         <NA>    <NA>   
    ## 10 Large size in stockings is hard to sell.    <NA>    <NA>   
    ## # … with 710 more rows
…
