…
``` r
flights %>%
  count(year, month, day, flight) %>%
  filter(n > 1)
```

What if we include `tailnum`?

``` r
flights %>%
  count(year, month, day, tailnum) %>%
  filter(n > 1)
```

    ## # A tibble: 64,928 x 5
    ##     year month   day tailnum     n
    ##    <int> <int> <int> <chr>   <int>
    ##  1  2013     1     1 N0EGMQ      2
    ##  2  2013     1     1 N11189      2
    ##  3  2013     1     1 N11536      2
    ##  4  2013     1     1 N11544      3
    ##  5  2013     1     1 N11551      2
    ##  6  2013     1     1 N12540      2
    ##  7  2013     1     1 N12567      2
    ##  8  2013     1     1 N13123      2
    ##  9  2013     1     1 N13538      3
    ## 10  2013     1     1 N13566      3
    ## # … with 64,918 more rows
…
If we want to add the airline names to `flights2`. We can do this with
`left_join()`.

``` r
flights2 %>%
  select(-origin, -dest)%>%
  left_join(airlines, by = "carrier")
```

    ## # A tibble: 336,776 x 7
    ##     year month   day  hour tailnum carrier name                    
    ##    <int> <int> <int> <dbl> <chr>   <chr>   <chr>                   
    ##  1  2013     1     1     5 N14228  UA      United Air Lines Inc.   
    ##  2  2013     1     1     5 N24211  UA      United Air Lines Inc.   
    ##  3  2013     1     1     5 N619AA  AA      American Airlines Inc.  
    ##  4  2013     1     1     5 N804JB  B6      JetBlue Airways         
    ##  5  2013     1     1     6 N668DN  DL      Delta Air Lines Inc.    
    ##  6  2013     1     1     5 N39463  UA      United Air Lines Inc.   
    ##  7  2013     1     1     6 N516JB  B6      JetBlue Airways         
    ##  8  2013     1     1     6 N829AS  EV      ExpressJet Airlines Inc.
    ##  9  2013     1     1     6 N593JB  B6      JetBlue Airways         
    ## 10  2013     1     1     6 N3ALAA  AA      American Airlines Inc.  
    ## # … with 336,766 more rows

We could accomplish the same thing using `mutate`.

``` r
flights2 %>%
  select(-origin, -dest) %>%
  mutate(name = airlines$name[match(carrier, airlines$carrier)])
```

    ## # A tibble: 336,776 x 7
    ##     year month   day  hour tailnum carrier name                    
    ##    <int> <int> <int> <dbl> <chr>   <chr>   <chr>                   
    ##  1  2013     1     1     5 N14228  UA      United Air Lines Inc.   
    ##  2  2013     1     1     5 N24211  UA      United Air Lines Inc.   
    ##  3  2013     1     1     5 N619AA  AA      American Airlines Inc.  
    ##  4  2013     1     1     5 N804JB  B6      JetBlue Airways         
    ##  5  2013     1     1     6 N668DN  DL      Delta Air Lines Inc.    
    ##  6  2013     1     1     5 N39463  UA      United Air Lines Inc.   
    ##  7  2013     1     1     6 N516JB  B6      JetBlue Airways         
    ##  8  2013     1     1     6 N829AS  EV      ExpressJet Airlines Inc.
    ##  9  2013     1     1     6 N593JB  B6      JetBlue Airways         
    ## 10  2013     1     1     6 N3ALAA  AA      American Airlines Inc.  
    ## # … with 336,766 more rows
…
### Defining the Key Columns

  - if we use `by = NULL`, all variables that appear in both tables are
    used to join the tables, also called a *natural* join

<!-- end list -->

``` r
flights2 %>%
  left_join(weather)
```

    ## Joining, by = c("year", "month", "day", "hour", "origin")

    ## # A tibble: 336,776 x 18
    ##     year month   day  hour origin dest  tailnum carrier  temp  dewp humid
    ##    <int> <int> <int> <dbl> <chr>  <chr> <chr>   <chr>   <dbl> <dbl> <dbl>
    ##  1  2013     1     1     5 EWR    IAH   N14228  UA       39.0  28.0  64.4
    ##  2  2013     1     1     5 LGA    IAH   N24211  UA       39.9  25.0  54.8
    ##  3  2013     1     1     5 JFK    MIA   N619AA  AA       39.0  27.0  61.6
    ##  4  2013     1     1     5 JFK    BQN   N804JB  B6       39.0  27.0  61.6
    ##  5  2013     1     1     6 LGA    ATL   N668DN  DL       39.9  25.0  54.8
    ##  6  2013     1     1     5 EWR    ORD   N39463  UA       39.0  28.0  64.4
    ##  7  2013     1     1     6 EWR    FLL   N516JB  B6       37.9  28.0  67.2
    ##  8  2013     1     1     6 LGA    IAD   N829AS  EV       39.9  25.0  54.8
    ##  9  2013     1     1     6 JFK    MCO   N593JB  B6       37.9  27.0  64.3
    ## 10  2013     1     1     6 LGA    ORD   N3ALAA  AA       39.9  25.0  54.8
    ## # … with 336,766 more rows, and 7 more variables: wind_dir <dbl>,
    ## #   wind_speed <dbl>, wind_gust <dbl>, precip <dbl>, pressure <dbl>,
    ## #   visib <dbl>, time_hour <dttm>

  - join by a named character vector: `by = c("a" = "b")`: variable `a`
    in table x matches to variable `b` in table y. The variables from x
    will be used in the output.

<!-- end list -->

``` r
flights2 %>%
  left_join(airports, c("dest" = "faa"))
```

    ## # A tibble: 336,776 x 15
    ##     year month   day  hour origin dest  tailnum carrier name     lat   lon   alt
    ##    <int> <int> <int> <dbl> <chr>  <chr> <chr>   <chr>   <chr>  <dbl> <dbl> <dbl>
    ##  1  2013     1     1     5 EWR    IAH   N14228  UA      Georg…  30.0 -95.3    97
    ##  2  2013     1     1     5 LGA    IAH   N24211  UA      Georg…  30.0 -95.3    97
    ##  3  2013     1     1     5 JFK    MIA   N619AA  AA      Miami…  25.8 -80.3     8
    ##  4  2013     1     1     5 JFK    BQN   N804JB  B6      <NA>    NA    NA      NA
    ##  5  2013     1     1     6 LGA    ATL   N668DN  DL      Harts…  33.6 -84.4  1026
    ##  6  2013     1     1     5 EWR    ORD   N39463  UA      Chica…  42.0 -87.9   668
    ##  7  2013     1     1     6 EWR    FLL   N516JB  B6      Fort …  26.1 -80.2     9
    ##  8  2013     1     1     6 LGA    IAD   N829AS  EV      Washi…  38.9 -77.5   313
    ##  9  2013     1     1     6 JFK    MCO   N593JB  B6      Orlan…  28.4 -81.3    96
    ## 10  2013     1     1     6 LGA    ORD   N3ALAA  AA      Chica…  42.0 -87.9   668
    ## # … with 336,766 more rows, and 3 more variables: tz <dbl>, dst <chr>,
    ## #   tzone <chr>

``` r
flights2 %>%
  left_join(airports, c("origin" = "faa"))
```

    ## # A tibble: 336,776 x 15
    ##     year month   day  hour origin dest  tailnum carrier name     lat   lon   alt
    ##    <int> <int> <int> <dbl> <chr>  <chr> <chr>   <chr>   <chr>  <dbl> <dbl> <dbl>
    ##  1  2013     1     1     5 EWR    IAH   N14228  UA      Newar…  40.7 -74.2    18
    ##  2  2013     1     1     5 LGA    IAH   N24211  UA      La Gu…  40.8 -73.9    22
    ##  3  2013     1     1     5 JFK    MIA   N619AA  AA      John …  40.6 -73.8    13
    ##  4  2013     1     1     5 JFK    BQN   N804JB  B6      John …  40.6 -73.8    13
    ##  5  2013     1     1     6 LGA    ATL   N668DN  DL      La Gu…  40.8 -73.9    22
    ##  6  2013     1     1     5 EWR    ORD   N39463  UA      Newar…  40.7 -74.2    18
    ##  7  2013     1     1     6 EWR    FLL   N516JB  B6      Newar…  40.7 -74.2    18
    ##  8  2013     1     1     6 LGA    IAD   N829AS  EV      La Gu…  40.8 -73.9    22
    ##  9  2013     1     1     6 JFK    MCO   N593JB  B6      John …  40.6 -73.8    13
    ## 10  2013     1     1     6 LGA    ORD   N3ALAA  AA      La Gu…  40.8 -73.9    22
    ## # … with 336,766 more rows, and 3 more variables: tz <dbl>, dst <chr>,
    ## #   tzone <chr>
…
We could filter this by hand:

``` r
flights %>%
  filter(dest %in% top_dest$dest)
```

    ## # A tibble: 141,145 x 19
    ##     year month   day dep_time sched_dep_time dep_delay arr_time sched_arr_time
    ##    <int> <int> <int>    <int>          <int>     <dbl>    <int>          <int>
    ##  1  2013     1     1      542            540         2      923            850
    ##  2  2013     1     1      554            600        -6      812            837
    ##  3  2013     1     1      554            558        -4      740            728
    ##  4  2013     1     1      555            600        -5      913            854
    ##  5  2013     1     1      557            600        -3      838            846
    ##  6  2013     1     1      558            600        -2      753            745
    ##  7  2013     1     1      558            600        -2      924            917
    ##  8  2013     1     1      558            600        -2      923            937
    ##  9  2013     1     1      559            559         0      702            706
    ## 10  2013     1     1      600            600         0      851            858
    ## # … with 141,135 more rows, and 11 more variables: arr_delay <dbl>,
    ## #   carrier <chr>, flight <int>, tailnum <chr>, origin <chr>, dest <chr>,
    ## #   air_time <dbl>, distance <dbl>, hour <dbl>, minute <dbl>, time_hour <dttm>

but once we add more variables it is much more difficult to filter by
hand. We can use semi\_join instead.

``` r
flights %>%
  semi_join(top_dest)
```

    ## Joining, by = "dest"

    ## # A tibble: 141,145 x 19
    ##     year month   day dep_time sched_dep_time dep_delay arr_time sched_arr_time
    ##    <int> <int> <int>    <int>          <int>     <dbl>    <int>          <int>
    ##  1  2013     1     1      542            540         2      923            850
    ##  2  2013     1     1      554            600        -6      812            837
    ##  3  2013     1     1      554            558        -4      740            728
    ##  4  2013     1     1      555            600        -5      913            854
    ##  5  2013     1     1      557            600        -3      838            846
    ##  6  2013     1     1      558            600        -2      753            745
    ##  7  2013     1     1      558            600        -2      924            917
    ##  8  2013     1     1      558            600        -2      923            937
    ##  9  2013     1     1      559            559         0      702            706
    ## 10  2013     1     1      600            600         0      851            858
    ## # … with 141,135 more rows, and 11 more variables: arr_delay <dbl>,
    ## #   carrier <chr>, flight <int>, tailnum <chr>, origin <chr>, dest <chr>,
    ## #   air_time <dbl>, distance <dbl>, hour <dbl>, minute <dbl>, time_hour <dttm>

Using anti-joins, we can easily find join mismatches.

``` r
flights %>%
  anti_join(planes, by = "tailnum") %>%
  count(tailnum, sort = TRUE)
```

    ## # A tibble: 722 x 2
    ##    tailnum     n
    ##    <chr>   <int>
    ##  1 <NA>     2512
    ##  2 N725MQ    575
    ##  3 N722MQ    513
    ##  4 N723MQ    507
    ##  5 N713MQ    483
    ##  6 N735MQ    396
    ##  7 N0EGMQ    371
    ##  8 N534MQ    364
    ##  9 N542MQ    363
    ## 10 N531MQ    349
    ## # … with 712 more rows
